…
``` r
# disagreement on the mean rating cat 2 vs 3 larger than 0.4
df_dif_great = df_dif %>%
  filter(dif > 0.4)

df_two %>%
  bind_rows(df_three) %>%
  filter(digital_object %in% df_dif_great$digital_object) %>%
  select(digital_object, label, rating_system, rater) %>%
  spread(rating_system, label) 
```

    ## # A tibble: 138 x 4
    ##    digital_object rater   three             two           
    ##             <dbl> <chr>   <chr>             <chr>         
    ##  1           7871 Kyle    Quality - Average Marketable    
    ##  2           7871 Natalie Quality - Average Marketable    
    ##  3           7871 Ozan    Quality - Average Marketable    
    ##  4           7874 Kyle    Quality - Average Marketable    
    ##  5           7874 Natalie Quality - Poor    Marketable    
    ##  6           7874 Ozan    Quality - Average Marketable    
    ##  7           7875 Kyle    Quality - Average Marketable    
    ##  8           7875 Natalie Quality - Poor    Marketable    
    ##  9           7875 Ozan    Quality - Ideal   Marketable    
    ## 10           7876 Kyle    Quality - Average Non-Marketable
    ## # … with 128 more rows
